asgiref==3.2.7
certifi==2020.4.5
chardet==3.0.4
cvxopt==1.2.4
defusedxml==0.6.0
dj-rest-auth==1.0.0
Django==3.0.5
django-allauth==0.41.0
django-cors-headers==3.2.1
django-environ==0.4.5
django-filter==2.2.0
djangorestframework==3.11.0
idna==2.9
Markdown==3.2.1
numpy==1.18.2
oauthlib==3.1.0
psycopg2-binary==2.8.5
python3-openid==3.1.0
pytz==2019.3
requests==2.23.0
requests-oauthlib==1.3.0
simpy==4.0.1
sqlparse==0.3.1
urllib3==1.25.8
